{
  "contractName": "ERC165",
  "abi": [
    {
      "inputs": [
        {
          "internalType": "bytes4",
          "name": "interfaceId",
          "type": "bytes4"
        }
      ],
      "name": "supportsInterface",
      "outputs": [
        {
          "internalType": "bool",
          "name": "",
          "type": "bool"
        }
      ],
      "stateMutability": "view",
      "type": "function"
    }
  ],
  "metadata": "{\"compiler\":{\"version\":\"0.8.0+commit.c7dfd78e\"},\"language\":\"Solidity\",\"output\":{\"abi\":[{\"inputs\":[{\"internalType\":\"bytes4\",\"name\":\"interfaceId\",\"type\":\"bytes4\"}],\"name\":\"supportsInterface\",\"outputs\":[{\"internalType\":\"bool\",\"name\":\"\",\"type\":\"bool\"}],\"stateMutability\":\"view\",\"type\":\"function\"}],\"devdoc\":{\"details\":\"Implementation of the {IERC165} interface. Contracts that want to implement ERC165 should inherit from this contract and override {supportsInterface} to check for the additional interface id that will be supported. For example: ```solidity function supportsInterface(bytes4 interfaceId) public view virtual override returns (bool) {     return interfaceId == type(MyInterface).interfaceId || super.supportsInterface(interfaceId); } ``` Alternatively, {ERC165Storage} provides an easier to use but more expensive implementation.\",\"kind\":\"dev\",\"methods\":{\"supportsInterface(bytes4)\":{\"details\":\"See {IERC165-supportsInterface}.\"}},\"version\":1},\"userdoc\":{\"kind\":\"user\",\"methods\":{},\"version\":1}},\"settings\":{\"compilationTarget\":{\"@openzeppelin/contracts/utils/introspection/ERC165.sol\":\"ERC165\"},\"evmVersion\":\"istanbul\",\"libraries\":{},\"metadata\":{\"bytecodeHash\":\"ipfs\"},\"optimizer\":{\"enabled\":true,\"runs\":200},\"remappings\":[]},\"sources\":{\"@openzeppelin/contracts/utils/introspection/ERC165.sol\":{\"keccak256\":\"0x905cd0ecd91d1de79a4679d745b79cf852ca8ccda5d25d1c49c6bd17a5edc0cf\",\"license\":\"MIT\",\"urls\":[\"bzz-raw://8dd1601fcd370546d8c06ea1902d7e7364fc490fbf0ebc3004230ef1f5db473c\",\"dweb:/ipfs/Qmb8zbC3TjWFtcuyP3KEEaegMkPcfeKAcPrwzvkAoMR3cZ\"]},\"@openzeppelin/contracts/utils/introspection/IERC165.sol\":{\"keccak256\":\"0x6aa521718bf139b44ce56f194f6aea1d590cacef995b5a84703fb1579fa49be9\",\"license\":\"MIT\",\"urls\":[\"bzz-raw://100f8d367b5e94eb9cb991914f1de133cf272654c0708faa893bbc17a5b35b93\",\"dweb:/ipfs/QmZeBojmgXq821dL1TJKFb58B1FogM9jL3u7hXQ8hTEBKT\"]}},\"version\":1}",
  "bytecode": "0x",
  "deployedBytecode": "0x",
  "immutableReferences": {},
  "generatedSources": [],
  "deployedGeneratedSources": [],
  "sourceMap": "",
  "deployedSourceMap": "",
  "source": "// SPDX-License-Identifier: MIT\n// OpenZeppelin Contracts v4.4.0 (utils/introspection/ERC165.sol)\n\npragma solidity ^0.8.0;\n\nimport \"./IERC165.sol\";\n\n/**\n * @dev Implementation of the {IERC165} interface.\n *\n * Contracts that want to implement ERC165 should inherit from this contract and override {supportsInterface} to check\n * for the additional interface id that will be supported. For example:\n *\n * ```solidity\n * function supportsInterface(bytes4 interfaceId) public view virtual override returns (bool) {\n *     return interfaceId == type(MyInterface).interfaceId || super.supportsInterface(interfaceId);\n * }\n * ```\n *\n * Alternatively, {ERC165Storage} provides an easier to use but more expensive implementation.\n */\nabstract contract ERC165 is IERC165 {\n    /**\n     * @dev See {IERC165-supportsInterface}.\n     */\n    function supportsInterface(bytes4 interfaceId) public view virtual override returns (bool) {\n        return interfaceId == type(IERC165).interfaceId;\n    }\n}\n",
  "sourcePath": "@openzeppelin\\contracts\\utils\\introspection\\ERC165.sol",
  "ast": {
    "absolutePath": "@openzeppelin/contracts/utils/introspection/ERC165.sol",
    "exportedSymbols": {
      "ERC165": [
        1642
      ],
      "IERC165": [
        1654
      ]
    },
    "id": 1643,
    "license": "MIT",
    "nodeType": "SourceUnit",
    "nodes": [
      {
        "id": 1620,
        "literals": [
          "solidity",
          "^",
          "0.8",
          ".0"
        ],
        "nodeType": "PragmaDirective",
        "src": "99:23:8"
      },
      {
        "absolutePath": "@openzeppelin/contracts/utils/introspection/IERC165.sol",
        "file": "./IERC165.sol",
        "id": 1621,
        "nodeType": "ImportDirective",
        "scope": 1643,
        "sourceUnit": 1655,
        "src": "124:23:8",
        "symbolAliases": [],
        "unitAlias": ""
      },
      {
        "abstract": true,
        "baseContracts": [
          {
            "baseName": {
              "id": 1623,
              "name": "IERC165",
              "nodeType": "IdentifierPath",
              "referencedDeclaration": 1654,
              "src": "754:7:8"
            },
            "id": 1624,
            "nodeType": "InheritanceSpecifier",
            "src": "754:7:8"
          }
        ],
        "contractDependencies": [
          1654
        ],
        "contractKind": "contract",
        "documentation": {
          "id": 1622,
          "nodeType": "StructuredDocumentation",
          "src": "149:576:8",
          "text": " @dev Implementation of the {IERC165} interface.\n Contracts that want to implement ERC165 should inherit from this contract and override {supportsInterface} to check\n for the additional interface id that will be supported. For example:\n ```solidity\n function supportsInterface(bytes4 interfaceId) public view virtual override returns (bool) {\n     return interfaceId == type(MyInterface).interfaceId || super.supportsInterface(interfaceId);\n }\n ```\n Alternatively, {ERC165Storage} provides an easier to use but more expensive implementation."
        },
        "fullyImplemented": true,
        "id": 1642,
        "linearizedBaseContracts": [
          1642,
          1654
        ],
        "name": "ERC165",
        "nodeType": "ContractDefinition",
        "nodes": [
          {
            "baseFunctions": [
              1653
            ],
            "body": {
              "id": 1640,
              "nodeType": "Block",
              "src": "920:64:8",
              "statements": [
                {
                  "expression": {
                    "commonType": {
                      "typeIdentifier": "t_bytes4",
                      "typeString": "bytes4"
                    },
                    "id": 1638,
                    "isConstant": false,
                    "isLValue": false,
                    "isPure": false,
                    "lValueRequested": false,
                    "leftExpression": {
                      "id": 1633,
                      "name": "interfaceId",
                      "nodeType": "Identifier",
                      "overloadedDeclarations": [],
                      "referencedDeclaration": 1627,
                      "src": "937:11:8",
                      "typeDescriptions": {
                        "typeIdentifier": "t_bytes4",
                        "typeString": "bytes4"
                      }
                    },
                    "nodeType": "BinaryOperation",
                    "operator": "==",
                    "rightExpression": {
                      "expression": {
                        "arguments": [
                          {
                            "id": 1635,
                            "name": "IERC165",
                            "nodeType": "Identifier",
                            "overloadedDeclarations": [],
                            "referencedDeclaration": 1654,
                            "src": "957:7:8",
                            "typeDescriptions": {
                              "typeIdentifier": "t_type$_t_contract$_IERC165_$1654_$",
                              "typeString": "type(contract IERC165)"
                            }
                          }
                        ],
                        "expression": {
                          "argumentTypes": [
                            {
                              "typeIdentifier": "t_type$_t_contract$_IERC165_$1654_$",
                              "typeString": "type(contract IERC165)"
                            }
                          ],
                          "id": 1634,
                          "name": "type",
                          "nodeType": "Identifier",
                          "overloadedDeclarations": [],
                          "referencedDeclaration": 4294967269,
                          "src": "952:4:8",
                          "typeDescriptions": {
                            "typeIdentifier": "t_function_metatype_pure$__$returns$__$",
                            "typeString": "function () pure"
                          }
                        },
                        "id": 1636,
                        "isConstant": false,
                        "isLValue": false,
                        "isPure": true,
                        "kind": "functionCall",
                        "lValueRequested": false,
                        "names": [],
                        "nodeType": "FunctionCall",
                        "src": "952:13:8",
                        "tryCall": false,
                        "typeDescriptions": {
                          "typeIdentifier": "t_magic_meta_type_t_contract$_IERC165_$1654",
                          "typeString": "type(contract IERC165)"
                        }
                      },
                      "id": 1637,
                      "isConstant": false,
                      "isLValue": false,
                      "isPure": true,
                      "lValueRequested": false,
                      "memberName": "interfaceId",
                      "nodeType": "MemberAccess",
                      "src": "952:25:8",
                      "typeDescriptions": {
                        "typeIdentifier": "t_bytes4",
                        "typeString": "bytes4"
                      }
                    },
                    "src": "937:40:8",
                    "typeDescriptions": {
                      "typeIdentifier": "t_bool",
                      "typeString": "bool"
                    }
                  },
                  "functionReturnParameters": 1632,
                  "id": 1639,
                  "nodeType": "Return",
                  "src": "930:47:8"
                }
              ]
            },
            "documentation": {
              "id": 1625,
              "nodeType": "StructuredDocumentation",
              "src": "768:56:8",
              "text": " @dev See {IERC165-supportsInterface}."
            },
            "functionSelector": "01ffc9a7",
            "id": 1641,
            "implemented": true,
            "kind": "function",
            "modifiers": [],
            "name": "supportsInterface",
            "nodeType": "FunctionDefinition",
            "overrides": {
              "id": 1629,
              "nodeType": "OverrideSpecifier",
              "overrides": [],
              "src": "896:8:8"
            },
            "parameters": {
              "id": 1628,
              "nodeType": "ParameterList",
              "parameters": [
                {
                  "constant": false,
                  "id": 1627,
                  "mutability": "mutable",
                  "name": "interfaceId",
                  "nodeType": "VariableDeclaration",
                  "scope": 1641,
                  "src": "856:18:8",
                  "stateVariable": false,
                  "storageLocation": "default",
                  "typeDescriptions": {
                    "typeIdentifier": "t_bytes4",
                    "typeString": "bytes4"
                  },
                  "typeName": {
                    "id": 1626,
                    "name": "bytes4",
                    "nodeType": "ElementaryTypeName",
                    "src": "856:6:8",
                    "typeDescriptions": {
                      "typeIdentifier": "t_bytes4",
                      "typeString": "bytes4"
                    }
                  },
                  "visibility": "internal"
                }
              ],
              "src": "855:20:8"
            },
            "returnParameters": {
              "id": 1632,
              "nodeType": "ParameterList",
              "parameters": [
                {
                  "constant": false,
                  "id": 1631,
                  "mutability": "mutable",
                  "name": "",
                  "nodeType": "VariableDeclaration",
                  "scope": 1641,
                  "src": "914:4:8",
                  "stateVariable": false,
                  "storageLocation": "default",
                  "typeDescriptions": {
                    "typeIdentifier": "t_bool",
                    "typeString": "bool"
                  },
                  "typeName": {
                    "id": 1630,
                    "name": "bool",
                    "nodeType": "ElementaryTypeName",
                    "src": "914:4:8",
                    "typeDescriptions": {
                      "typeIdentifier": "t_bool",
                      "typeString": "bool"
                    }
                  },
                  "visibility": "internal"
                }
              ],
              "src": "913:6:8"
            },
            "scope": 1642,
            "src": "829:155:8",
            "stateMutability": "view",
            "virtual": true,
            "visibility": "public"
          }
        ],
        "scope": 1643,
        "src": "726:260:8"
      }
    ],
    "src": "99:888:8"
  },
  "legacyAST": {
    "absolutePath": "@openzeppelin/contracts/utils/introspection/ERC165.sol",
    "exportedSymbols": {
      "ERC165": [
        1642
      ],
      "IERC165": [
        1654
      ]
    },
    "id": 1643,
    "license": "MIT",
    "nodeType": "SourceUnit",
    "nodes": [
      {
        "id": 1620,
        "literals": [
          "solidity",
          "^",
          "0.8",
          ".0"
        ],
        "nodeType": "PragmaDirective",
        "src": "99:23:8"
      },
      {
        "absolutePath": "@openzeppelin/contracts/utils/introspection/IERC165.sol",
        "file": "./IERC165.sol",
        "id": 1621,
        "nodeType": "ImportDirective",
        "scope": 1643,
        "sourceUnit": 1655,
        "src": "124:23:8",
        "symbolAliases": [],
        "unitAlias": ""
      },
      {
        "abstract": true,
        "baseContracts": [
          {
            "baseName": {
              "id": 1623,
              "name": "IERC165",
              "nodeType": "IdentifierPath",
              "referencedDeclaration": 1654,
              "src": "754:7:8"
            },
            "id": 1624,
            "nodeType": "InheritanceSpecifier",
            "src": "754:7:8"
          }
        ],
        "contractDependencies": [
          1654
        ],
        "contractKind": "contract",
        "documentation": {
          "id": 1622,
          "nodeType": "StructuredDocumentation",
          "src": "149:576:8",
          "text": " @dev Implementation of the {IERC165} interface.\n Contracts that want to implement ERC165 should inherit from this contract and override {supportsInterface} to check\n for the additional interface id that will be supported. For example:\n ```solidity\n function supportsInterface(bytes4 interfaceId) public view virtual override returns (bool) {\n     return interfaceId == type(MyInterface).interfaceId || super.supportsInterface(interfaceId);\n }\n ```\n Alternatively, {ERC165Storage} provides an easier to use but more expensive implementation."
        },
        "fullyImplemented": true,
        "id": 1642,
        "linearizedBaseContracts": [
          1642,
          1654
        ],
        "name": "ERC165",
        "nodeType": "ContractDefinition",
        "nodes": [
          {
            "baseFunctions": [
              1653
            ],
            "body": {
              "id": 1640,
              "nodeType": "Block",
              "src": "920:64:8",
              "statements": [
                {
                  "expression": {
                    "commonType": {
                      "typeIdentifier": "t_bytes4",
                      "typeString": "bytes4"
                    },
                    "id": 1638,
                    "isConstant": false,
                    "isLValue": false,
                    "isPure": false,
                    "lValueRequested": false,
                    "leftExpression": {
                      "id": 1633,
                      "name": "interfaceId",
                      "nodeType": "Identifier",
                      "overloadedDeclarations": [],
                      "referencedDeclaration": 1627,
                      "src": "937:11:8",
                      "typeDescriptions": {
                        "typeIdentifier": "t_bytes4",
                        "typeString": "bytes4"
                      }
                    },
                    "nodeType": "BinaryOperation",
                    "operator": "==",
                    "rightExpression": {
                      "expression": {
                        "arguments": [
                          {
                            "id": 1635,
                            "name": "IERC165",
                            "nodeType": "Identifier",
                            "overloadedDeclarations": [],
                            "referencedDeclaration": 1654,
                            "src": "957:7:8",
                            "typeDescriptions": {
                              "typeIdentifier": "t_type$_t_contract$_IERC165_$1654_$",
                              "typeString": "type(contract IERC165)"
                            }
                          }
                        ],
                        "expression": {
                          "argumentTypes": [
                            {
                              "typeIdentifier": "t_type$_t_contract$_IERC165_$1654_$",
                              "typeString": "type(contract IERC165)"
                            }
                          ],
                          "id": 1634,
                          "name": "type",
                          "nodeType": "Identifier",
                          "overloadedDeclarations": [],
                          "referencedDeclaration": 4294967269,
                          "src": "952:4:8",
                          "typeDescriptions": {
                            "typeIdentifier": "t_function_metatype_pure$__$returns$__$",
                            "typeString": "function () pure"
                          }
                        },
                        "id": 1636,
                        "isConstant": false,
                        "isLValue": false,
                        "isPure": true,
                        "kind": "functionCall",
                        "lValueRequested": false,
                        "names": [],
                        "nodeType": "FunctionCall",
                        "src": "952:13:8",
                        "tryCall": false,
                        "typeDescriptions": {
                          "typeIdentifier": "t_magic_meta_type_t_contract$_IERC165_$1654",
                          "typeString": "type(contract IERC165)"
                        }
                      },
                      "id": 1637,
                      "isConstant": false,
                      "isLValue": false,
                      "isPure": true,
                      "lValueRequested": false,
                      "memberName": "interfaceId",
                      "nodeType": "MemberAccess",
                      "src": "952:25:8",
                      "typeDescriptions": {
                        "typeIdentifier": "t_bytes4",
                        "typeString": "bytes4"
                      }
                    },
                    "src": "937:40:8",
                    "typeDescriptions": {
                      "typeIdentifier": "t_bool",
                      "typeString": "bool"
                    }
                  },
                  "functionReturnParameters": 1632,
                  "id": 1639,
                  "nodeType": "Return",
                  "src": "930:47:8"
                }
              ]
            },
            "documentation": {
              "id": 1625,
              "nodeType": "StructuredDocumentation",
              "src": "768:56:8",
              "text": " @dev See {IERC165-supportsInterface}."
            },
            "functionSelector": "01ffc9a7",
            "id": 1641,
            "implemented": true,
            "kind": "function",
            "modifiers": [],
            "name": "supportsInterface",
            "nodeType": "FunctionDefinition",
            "overrides": {
              "id": 1629,
              "nodeType": "OverrideSpecifier",
              "overrides": [],
              "src": "896:8:8"
            },
            "parameters": {
              "id": 1628,
              "nodeType": "ParameterList",
              "parameters": [
                {
                  "constant": false,
                  "id": 1627,
                  "mutability": "mutable",
                  "name": "interfaceId",
                  "nodeType": "VariableDeclaration",
                  "scope": 1641,
                  "src": "856:18:8",
                  "stateVariable": false,
                  "storageLocation": "default",
                  "typeDescriptions": {
                    "typeIdentifier": "t_bytes4",
                    "typeString": "bytes4"
                  },
                  "typeName": {
                    "id": 1626,
                    "name": "bytes4",
                    "nodeType": "ElementaryTypeName",
                    "src": "856:6:8",
                    "typeDescriptions": {
                      "typeIdentifier": "t_bytes4",
                      "typeString": "bytes4"
                    }
                  },
                  "visibility": "internal"
                }
              ],
              "src": "855:20:8"
            },
            "returnParameters": {
              "id": 1632,
              "nodeType": "ParameterList",
              "parameters": [
                {
                  "constant": false,
                  "id": 1631,
                  "mutability": "mutable",
                  "name": "",
                  "nodeType": "VariableDeclaration",
                  "scope": 1641,
                  "src": "914:4:8",
                  "stateVariable": false,
                  "storageLocation": "default",
                  "typeDescriptions": {
                    "typeIdentifier": "t_bool",
                    "typeString": "bool"
                  },
                  "typeName": {
                    "id": 1630,
                    "name": "bool",
                    "nodeType": "ElementaryTypeName",
                    "src": "914:4:8",
                    "typeDescriptions": {
                      "typeIdentifier": "t_bool",
                      "typeString": "bool"
                    }
                  },
                  "visibility": "internal"
                }
              ],
              "src": "913:6:8"
            },
            "scope": 1642,
            "src": "829:155:8",
            "stateMutability": "view",
            "virtual": true,
            "visibility": "public"
          }
        ],
        "scope": 1643,
        "src": "726:260:8"
      }
    ],
    "src": "99:888:8"
  },
  "compiler": {
    "name": "solc",
    "version": "0.8.0+commit.c7dfd78e.Emscripten.clang"
  },
  "networks": {},
  "schemaVersion": "3.4.3",
  "updatedAt": "2021-12-13T13:25:18.766Z",
  "devdoc": {
    "details": "Implementation of the {IERC165} interface. Contracts that want to implement ERC165 should inherit from this contract and override {supportsInterface} to check for the additional interface id that will be supported. For example: ```solidity function supportsInterface(bytes4 interfaceId) public view virtual override returns (bool) {     return interfaceId == type(MyInterface).interfaceId || super.supportsInterface(interfaceId); } ``` Alternatively, {ERC165Storage} provides an easier to use but more expensive implementation.",
    "kind": "dev",
    "methods": {
      "supportsInterface(bytes4)": {
        "details": "See {IERC165-supportsInterface}."
      }
    },
    "version": 1
  },
  "userdoc": {
    "kind": "user",
    "methods": {},
    "version": 1
  }
}